<?xml version="1.0" encoding="UTF-8" standalone="no"?>
<!-- Created with Inkscape (http://www.inkscape.org/) -->

<svg
   xmlns:dc="http://purl.org/dc/elements/1.1/"
   xmlns:cc="http://creativecommons.org/ns#"
   xmlns:rdf="http://www.w3.org/1999/02/22-rdf-syntax-ns#"
   xmlns:svg="http://www.w3.org/2000/svg"
   xmlns="http://www.w3.org/2000/svg"
   xmlns:sodipodi="http://sodipodi.sourceforge.net/DTD/sodipodi-0.dtd"
   xmlns:inkscape="http://www.inkscape.org/namespaces/inkscape"
   width="100mm"
   height="100mm"
   viewBox="0 0 354.33071 354.33071"
   id="svg4187"
   version="1.1"
   inkscape:version="0.91 r13725"
   sodipodi:docname="IcyLogoMaterial.svg"
   enable-background="new">
  <defs
     id="defs4189" />
  <sodipodi:namedview
     id="base"
     pagecolor="#ffffff"
     bordercolor="#666666"
     borderopacity="1.0"
     inkscape:pageopacity="0.0"
     inkscape:pageshadow="2"
     inkscape:zoom="0.1767767"
     inkscape:cx="-761.79402"
     inkscape:cy="166.81238"
     inkscape:document-units="mm"
     inkscape:current-layer="g4208"
     showgrid="false"
     borderlayer="false"
     inkscape:showpageshadow="false"
     inkscape:window-width="1920"
     inkscape:window-height="1017"
     inkscape:window-x="-8"
     inkscape:window-y="32"
     inkscape:window-maximized="1"
     showguides="false"
     inkscape:guide-bbox="true"
     objecttolerance="1"
     guidetolerance="1"
     inkscape:snap-perpendicular="true"
     inkscape:snap-tangential="true"
     gridtolerance="1">
    <inkscape:grid
       type="xygrid"
       id="grid4762" />
    <sodipodi:guide
       position="24.803149,187.79527"
       orientation="1,0"
       id="guide4764" />
    <sodipodi:guide
       position="329.52755,177.16535"
       orientation="1,0"
       id="guide4766" />
    <sodipodi:guide
       position="177.16535,177.16535"
       orientation="1,0"
       id="guide4783" />
    <sodipodi:guide
       position="24.803149,265.13671"
       orientation="0,1"
       id="guide4785" />
    <sodipodi:guide
       position="24.803149,89.194889"
       orientation="0,1"
       id="guide4787" />
    <sodipodi:guide
       position="7.0710676,177.16535"
       orientation="0,1"
       id="guide4789"
       inkscape:label=""
       inkscape:color="rgb(0,0,255)" />
    <sodipodi:guide
       position="177.16535,177.16535"
       orientation="-0.5,0.8660254"
       id="guide4791"
       inkscape:label=""
       inkscape:color="rgb(0,0,255)" />
    <sodipodi:guide
       position="177.16535,177.16535"
       orientation="-0.8660254,0.5"
       id="guide4793"
       inkscape:label=""
       inkscape:color="rgb(0,0,255)" />
    <sodipodi:guide
       position="177.16535,177.16535"
       orientation="-0.8660254,-0.5"
       id="guide4795"
       inkscape:label=""
       inkscape:color="rgb(0,0,255)" />
    <sodipodi:guide
       position="177.16535,177.16535"
       orientation="-0.5,-0.8660254"
       id="guide4797"
       inkscape:label=""
       inkscape:color="rgb(0,0,255)" />
    <sodipodi:guide
       position="177.16535,353.10546"
       orientation="0,1"
       id="guide4799" />
    <sodipodi:guide
       position="177.16535,1.234375"
       orientation="0,1"
       id="guide4801" />
  </sodipodi:namedview>
  <metadata
     id="metadata4192">
    <rdf:RDF>
      <cc:Work
         rdf:about="">
        <dc:format>image/svg+xml</dc:format>
        <dc:type
           rdf:resource="http://purl.org/dc/dcmitype/StillImage" />
        <dc:title />
      </cc:Work>
    </rdf:RDF>
  </metadata>
  <g
     inkscape:label="green"
     inkscape:groupmode="layer"
     id="layer1"
     transform="translate(0,-698.0315)"
     style="display:inline">
    <path
       sodipodi:type="star"
       style="color:#000000;clip-rule:nonzero;display:inline;overflow:visible;visibility:visible;opacity:1;isolation:auto;mix-blend-mode:normal;color-interpolation:sRGB;color-interpolation-filters:linearRGB;solid-color:#000000;solid-opacity:1;fill:#b4e5e6;fill-opacity:1;fill-rule:nonzero;stroke:none;stroke-width:1.25px;stroke-linecap:butt;stroke-linejoin:miter;stroke-miterlimit:4;stroke-dasharray:none;stroke-dashoffset:0;stroke-opacity:1;color-rendering:auto;image-rendering:auto;shape-rendering:auto;text-rendering:auto;enable-background:accumulate"
       id="path4230"
       sodipodi:sides="6"
       sodipodi:cx="177.16534"
       sodipodi:cy="875.19684"
       sodipodi:r1="175.93098"
       sodipodi:r2="152.3607"
       sodipodi:arg1="1.5707963"
       sodipodi:arg2="2.0943951"
       inkscape:flatsided="true"
       inkscape:rounded="0.1"
       inkscape:randomized="0"
       d="m 177.16535,1051.1278 c -17.5931,0 -143.564156,-72.7294 -152.360705,-87.96547 -8.79655,-15.23607 -8.796554,-160.69491 -5e-6,-175.93098 8.796549,-15.23607 134.7676,-87.9655 152.3607,-87.9655 17.5931,0 143.56415,72.72942 152.3607,87.96549 8.79655,15.23607 8.79656,160.69492 10e-6,175.93099 -8.79655,15.23607 -134.7676,87.96547 -152.3607,87.96547 z" />
  </g>
  <g
     sodipodi:insensitive="true"
     style="display:none;opacity:0.1"
     inkscape:label="green 3D effect Kopie"
     id="g4179"
     inkscape:groupmode="layer">
    <path
       sodipodi:nodetypes="ccccc"
       inkscape:connector-curvature="0"
       id="path4182"
       d="M 24.804687,89.194 177.16535,1.2252505 329.53125,89.092439 177.16535,177.16927 Z"
       style="color:#000000;clip-rule:nonzero;display:inline;overflow:visible;visibility:visible;opacity:1;isolation:auto;mix-blend-mode:normal;color-interpolation:sRGB;color-interpolation-filters:linearRGB;solid-color:#000000;solid-opacity:1;fill:#ffffff;fill-opacity:1;fill-rule:nonzero;stroke:none;stroke-width:1.25px;stroke-linecap:butt;stroke-linejoin:miter;stroke-miterlimit:4;stroke-dasharray:none;stroke-dashoffset:0;stroke-opacity:1;color-rendering:auto;image-rendering:auto;shape-rendering:auto;text-rendering:auto;enable-background:accumulate" />
    <path
       inkscape:transform-center-x="-76.211727"
       inkscape:transform-center-y="44.027026"
       style="color:#000000;clip-rule:nonzero;display:inline;overflow:visible;visibility:visible;opacity:1;isolation:auto;mix-blend-mode:normal;color-interpolation:sRGB;color-interpolation-filters:linearRGB;solid-color:#000000;solid-opacity:1;fill:#808080;fill-opacity:1;fill-rule:nonzero;stroke:none;stroke-width:1.25px;stroke-linecap:butt;stroke-linejoin:miter;stroke-miterlimit:4;stroke-dasharray:none;stroke-dashoffset:0;stroke-opacity:1;color-rendering:auto;image-rendering:auto;shape-rendering:auto;text-rendering:auto;enable-background:accumulate"
       d="m 329.56268,89.248432 0.003,175.932578 -152.27817,88.01915 -0.0938,-175.99116 z"
       id="path4184"
       inkscape:connector-curvature="0"
       sodipodi:nodetypes="ccccc" />
    <path
       sodipodi:nodetypes="ccccc"
       inkscape:connector-curvature="0"
       id="path4186"
       d="M 177.13654,353.14938 24.772959,265.18569 24.685224,89.299351 177.14494,177.2137 Z"
       style="color:#000000;clip-rule:nonzero;display:inline;overflow:visible;visibility:visible;opacity:1;isolation:auto;mix-blend-mode:normal;color-interpolation:sRGB;color-interpolation-filters:linearRGB;solid-color:#000000;solid-opacity:1;fill:#000000;fill-opacity:1;fill-rule:nonzero;stroke:none;stroke-width:1.25px;stroke-linecap:butt;stroke-linejoin:miter;stroke-miterlimit:4;stroke-dasharray:none;stroke-dashoffset:0;stroke-opacity:1;color-rendering:auto;image-rendering:auto;shape-rendering:auto;text-rendering:auto;enable-background:accumulate"
       inkscape:transform-center-y="44.027096"
       inkscape:transform-center-x="76.252887" />
  </g>
  <g
     style="display:inline"
     transform="translate(0,-698.0315)"
     id="g4188"
     inkscape:groupmode="layer"
     inkscape:label="blue"
     sodipodi:insensitive="true">
    <path
       transform="scale(1,-1)"
       d="m 318.91424,-793.36067 c -8.18361,14.17444 -125.37716,81.83616 -141.7444,81.83616 -16.36723,0 -133.560776,-67.66172 -141.744393,-81.83616 -8.183616,-14.17444 -8.183616,-149.4979 1e-6,-163.67234 8.183617,-14.17444 125.377162,-81.83619 141.744402,-81.83619 16.36723,0 133.56078,67.66176 141.74439,81.8362 8.18362,14.17444 8.18362,149.49789 0,163.67233 z"
       inkscape:randomized="0"
       inkscape:rounded="0.1"
       inkscape:flatsided="true"
       sodipodi:arg2="1.0471976"
       sodipodi:arg1="0.52359878"
       sodipodi:r2="141.74443"
       sodipodi:r1="163.67233"
       sodipodi:cy="-875.19684"
       sodipodi:cx="177.16985"
       sodipodi:sides="6"
       id="path4192"
       style="color:#000000;clip-rule:nonzero;display:inline;overflow:visible;visibility:visible;opacity:1;isolation:auto;mix-blend-mode:normal;color-interpolation:sRGB;color-interpolation-filters:linearRGB;solid-color:#000000;solid-opacity:1;fill:#53abea;fill-opacity:1;fill-rule:nonzero;stroke:none;stroke-width:1.25px;stroke-linecap:butt;stroke-linejoin:miter;stroke-miterlimit:4;stroke-dasharray:none;stroke-dashoffset:0;stroke-opacity:1;color-rendering:auto;image-rendering:auto;shape-rendering:auto;text-rendering:auto;enable-background:accumulate"
       sodipodi:type="star" />
  </g>
  <g
     inkscape:groupmode="layer"
     id="layer2"
     inkscape:label="blue 3D effect"
     style="display:none;opacity:0.1"
     sodipodi:insensitive="true">
    <g
       id="g4223"
       transform="matrix(-0.92897221,0,0,-0.92897221,341.67007,341.83838)">
      <path
         sodipodi:nodetypes="ccccc"
         inkscape:connector-curvature="0"
         id="rect4804"
         d="M 24.804687,89.194 177.16535,1.2252505 329.53125,89.092439 177.16535,177.16927 Z"
         style="color:#000000;clip-rule:nonzero;display:inline;overflow:visible;visibility:visible;opacity:1;isolation:auto;mix-blend-mode:normal;color-interpolation:sRGB;color-interpolation-filters:linearRGB;solid-color:#000000;solid-opacity:1;fill:#ffffff;fill-opacity:1;fill-rule:nonzero;stroke:none;stroke-width:1.25px;stroke-linecap:butt;stroke-linejoin:miter;stroke-miterlimit:4;stroke-dasharray:none;stroke-dashoffset:0;stroke-opacity:1;color-rendering:auto;image-rendering:auto;shape-rendering:auto;text-rendering:auto;enable-background:accumulate" />
      <path
         inkscape:transform-center-x="-76.211727"
         inkscape:transform-center-y="44.027026"
         style="color:#000000;clip-rule:nonzero;display:inline;overflow:visible;visibility:visible;opacity:1;isolation:auto;mix-blend-mode:normal;color-interpolation:sRGB;color-interpolation-filters:linearRGB;solid-color:#000000;solid-opacity:1;fill:#808080;fill-opacity:1;fill-rule:nonzero;stroke:none;stroke-width:1.25px;stroke-linecap:butt;stroke-linejoin:miter;stroke-miterlimit:4;stroke-dasharray:none;stroke-dashoffset:0;stroke-opacity:1;color-rendering:auto;image-rendering:auto;shape-rendering:auto;text-rendering:auto;enable-background:accumulate"
         d="m 329.56268,89.248432 0.003,175.932578 -152.27817,88.01915 -0.0938,-175.99116 z"
         id="path4818"
         inkscape:connector-curvature="0"
         sodipodi:nodetypes="ccccc" />
      <path
         sodipodi:nodetypes="ccccc"
         inkscape:connector-curvature="0"
         id="path4820"
         d="M 177.13654,353.14938 24.772959,265.18569 24.685224,89.299351 177.14494,177.2137 Z"
         style="color:#000000;clip-rule:nonzero;display:inline;overflow:visible;visibility:visible;opacity:1;isolation:auto;mix-blend-mode:normal;color-interpolation:sRGB;color-interpolation-filters:linearRGB;solid-color:#000000;solid-opacity:1;fill:#000000;fill-opacity:1;fill-rule:nonzero;stroke:none;stroke-width:1.25px;stroke-linecap:butt;stroke-linejoin:miter;stroke-miterlimit:4;stroke-dasharray:none;stroke-dashoffset:0;stroke-opacity:1;color-rendering:auto;image-rendering:auto;shape-rendering:auto;text-rendering:auto;enable-background:accumulate"
         inkscape:transform-center-y="44.027096"
         inkscape:transform-center-x="76.252887" />
    </g>
  </g>
  <g
     inkscape:groupmode="layer"
     id="layer3"
     inkscape:label="material_shadow"
     style="display:inline">
    <path
       style="color:#000000;clip-rule:nonzero;display:inline;overflow:visible;visibility:visible;opacity:1;isolation:auto;mix-blend-mode:normal;color-interpolation:sRGB;color-interpolation-filters:linearRGB;solid-color:#000000;solid-opacity:1;fill:#000000;fill-opacity:0.19607843;fill-rule:nonzero;stroke:none;stroke-width:1.25px;stroke-linecap:butt;stroke-linejoin:miter;stroke-miterlimit:4;stroke-dasharray:none;stroke-dashoffset:0;stroke-opacity:1;color-rendering:auto;image-rendering:auto;shape-rendering:auto;text-rendering:auto;enable-background:accumulate"
       d="m 246.93164,134.71094 -0.11523,0.0684 c 0.56505,0.56417 0.99604,1.06219 1.22851,1.46484 4.09226,7.088 4.09226,74.75771 0,81.8457 -4.09225,7.088 -62.69439,40.92188 -70.8789,40.92188 -8.18452,0 -66.78861,-33.83388 -70.88086,-40.92188 -0.0194,-0.0336 -0.0374,-0.0906 -0.0566,-0.12695 l 1.0957,1.41211 113.87305,114.99219 c 37.81806,-19.75942 87.58132,-49.92852 103.57812,-64.11524 l 3.81836,-3.8164 c 0.37945,-0.46778 0.70257,-0.90936 0.92969,-1.30274 2.67221,-4.62841 4.52748,-21.30421 5.57617,-42.66601 l -88.16797,-87.75586 z"
       id="path4239"
       inkscape:connector-curvature="0"
       sodipodi:nodetypes="ccsssccccccsccc" />
  </g>
  <g
     inkscape:label="black"
     inkscape:groupmode="layer"
     id="g4198"
     transform="translate(0,-698.0315)"
     style="display:inline"
     sodipodi:insensitive="true">
    <path
       d="m 177.16536,-957.04459 c 8.18451,0 66.78771,33.83457 70.87996,40.92256 4.09226,7.088 4.09226,74.75714 0,81.84513 -4.09226,7.088 -62.69545,40.92257 -70.87996,40.92257 -8.18452,0 -66.78771,-33.83457 -70.87996,-40.92257 -4.09226,-7.088 -4.09226,-74.75713 0,-81.84513 4.09225,-7.088 62.69545,-40.92256 70.87996,-40.92256 z"
       inkscape:randomized="0"
       inkscape:rounded="0.1"
       inkscape:flatsided="true"
       sodipodi:arg2="-1.0471976"
       sodipodi:arg1="-1.5707963"
       sodipodi:r2="70.879967"
       sodipodi:r1="81.845131"
       sodipodi:cy="-875.19946"
       sodipodi:cx="177.16536"
       sodipodi:sides="6"
       id="path4204"
       style="color:#000000;clip-rule:nonzero;display:inline;overflow:visible;visibility:visible;opacity:1;isolation:auto;mix-blend-mode:normal;color-interpolation:sRGB;color-interpolation-filters:linearRGB;solid-color:#000000;solid-opacity:1;fill:#3c3c3c;fill-opacity:1;fill-rule:nonzero;stroke:none;stroke-width:1.25px;stroke-linecap:butt;stroke-linejoin:miter;stroke-miterlimit:4;stroke-dasharray:none;stroke-dashoffset:0;stroke-opacity:1;color-rendering:auto;image-rendering:auto;shape-rendering:auto;text-rendering:auto;enable-background:accumulate"
       sodipodi:type="star"
       transform="scale(1,-1)" />
  </g>
  <g
     style="display:none;opacity:0.1"
     inkscape:label="black 3D effect"
     id="g4156"
     inkscape:groupmode="layer"
     sodipodi:insensitive="true">
    <g
       id="g4218"
       transform="matrix(0.46446625,0,0,0.46446625,94.856657,94.903385)">
      <path
         style="color:#000000;clip-rule:nonzero;display:inline;overflow:visible;visibility:visible;opacity:1;isolation:auto;mix-blend-mode:normal;color-interpolation:sRGB;color-interpolation-filters:linearRGB;solid-color:#000000;solid-opacity:1;fill:#ffffff;fill-opacity:1;fill-rule:nonzero;stroke:none;stroke-width:1.25px;stroke-linecap:butt;stroke-linejoin:miter;stroke-miterlimit:4;stroke-dasharray:none;stroke-dashoffset:0;stroke-opacity:1;color-rendering:auto;image-rendering:auto;shape-rendering:auto;text-rendering:auto;enable-background:accumulate"
         d="M 24.804687,89.194 177.16535,1.2252505 329.53125,89.092439 177.16535,177.16927 Z"
         id="path4158"
         inkscape:connector-curvature="0"
         sodipodi:nodetypes="ccccc" />
      <path
         sodipodi:nodetypes="ccccc"
         inkscape:connector-curvature="0"
         id="path4160"
         d="m 329.56268,89.248432 0.003,175.932578 -152.27817,88.01915 -0.0938,-175.99116 z"
         style="color:#000000;clip-rule:nonzero;display:inline;overflow:visible;visibility:visible;opacity:1;isolation:auto;mix-blend-mode:normal;color-interpolation:sRGB;color-interpolation-filters:linearRGB;solid-color:#000000;solid-opacity:1;fill:#808080;fill-opacity:1;fill-rule:nonzero;stroke:none;stroke-width:1.25px;stroke-linecap:butt;stroke-linejoin:miter;stroke-miterlimit:4;stroke-dasharray:none;stroke-dashoffset:0;stroke-opacity:1;color-rendering:auto;image-rendering:auto;shape-rendering:auto;text-rendering:auto;enable-background:accumulate"
         inkscape:transform-center-y="44.027026"
         inkscape:transform-center-x="-76.211727" />
      <path
         inkscape:transform-center-x="76.252887"
         inkscape:transform-center-y="44.027096"
         style="color:#000000;clip-rule:nonzero;display:inline;overflow:visible;visibility:visible;opacity:1;isolation:auto;mix-blend-mode:normal;color-interpolation:sRGB;color-interpolation-filters:linearRGB;solid-color:#000000;solid-opacity:1;fill:#000000;fill-opacity:1;fill-rule:nonzero;stroke:none;stroke-width:1.25px;stroke-linecap:butt;stroke-linejoin:miter;stroke-miterlimit:4;stroke-dasharray:none;stroke-dashoffset:0;stroke-opacity:1;color-rendering:auto;image-rendering:auto;shape-rendering:auto;text-rendering:auto;enable-background:accumulate"
         d="M 177.13654,353.14938 24.772959,265.18569 24.685224,89.299351 177.14494,177.2137 Z"
         id="path4162"
         inkscape:connector-curvature="0"
         sodipodi:nodetypes="ccccc" />
    </g>
  </g>
  <g
     style="display:inline;opacity:1"
     transform="translate(0,-698.0315)"
     id="g4208"
     inkscape:groupmode="layer"
     inkscape:label="white">
    <path
       transform="scale(1,-1)"
       sodipodi:type="star"
       style="color:#000000;clip-rule:nonzero;display:inline;overflow:visible;visibility:visible;opacity:1;isolation:auto;mix-blend-mode:normal;color-interpolation:sRGB;color-interpolation-filters:linearRGB;solid-color:#000000;solid-opacity:1;fill:#ffffff;fill-opacity:0.81407034;fill-rule:nonzero;stroke:none;stroke-width:1.25px;stroke-linecap:butt;stroke-linejoin:miter;stroke-miterlimit:4;stroke-dasharray:none;stroke-dashoffset:0;stroke-opacity:1;color-rendering:auto;image-rendering:auto;shape-rendering:auto;text-rendering:auto;enable-background:accumulate"
       id="path4216"
       sodipodi:sides="6"
       sodipodi:cx="141.75627"
       sodipodi:cy="-813.76855"
       sodipodi:r1="30.27504"
       sodipodi:r2="26.218956"
       sodipodi:arg1="-1.5707963"
       sodipodi:arg2="-1.0471976"
       inkscape:flatsided="true"
       inkscape:rounded="0.1"
       inkscape:randomized="0"
       d="m 141.75627,-844.04359 c 3.02751,0 24.7052,12.51562 26.21896,15.13752 1.51375,2.62189 1.51375,27.65314 -1e-5,30.27504 -1.51375,2.62189 -23.19145,15.13752 -26.21895,15.13751 -3.0275,0 -24.7052,-12.51562 -26.21895,-15.13752 -1.51375,-2.62189 -1.51375,-27.65314 0,-30.27504 1.51375,-2.62189 23.19145,-15.13751 26.21895,-15.13751 z" />
  </g>
</svg>
